<?xml version="1.0" encoding="utf-8"?>
<!-- Generator: Adobe Illustrator 21.1.0, SVG Export Plug-In . SVG Version: 6.00 Build 0)  -->
<svg version="1.1" id="iconmonstr" xmlns="http://www.w3.org/2000/svg" xmlns:xlink="http://www.w3.org/1999/xlink" x="0px" y="0px"
	 viewBox="0 0 24 24" style="enable-background:new 0 0 24 24;" xml:space="preserve">
<style type="text/css">
	.st0{fill:#FFFFFF;}
</style>
<path id="youtube-5" class="st0" d="M8.326,6h0.721L9.54,7.851L9.998,6h0.727L9.893,8.752v1.878H9.177V8.752L8.326,6z M11.623,7.187
	c-0.56,0-0.931,0.37-0.931,0.918v1.675c0,0.602,0.314,0.915,0.931,0.915c0.511,0,0.913-0.342,0.913-0.915V8.104
	C12.536,7.569,12.138,7.187,11.623,7.187z M11.889,9.75c0,0.186-0.095,0.323-0.266,0.323c-0.176,0-0.277-0.144-0.277-0.323V8.161
	c0-0.187,0.086-0.326,0.265-0.326c0.194,0,0.278,0.134,0.278,0.326V9.75z M14.253,7.215v2.593c-0.077,0.097-0.25,0.256-0.374,0.256
	c-0.135,0-0.169-0.093-0.169-0.231V7.215h-0.635v2.856c0,0.337,0.102,0.61,0.443,0.61c0.192,0,0.459-0.1,0.734-0.426v0.377h0.635
	V7.215H14.253z M15.354,14.144c-0.224,0-0.27,0.158-0.27,0.382v0.329h0.535v-0.329C15.619,14.306,15.572,14.144,15.354,14.144z
	 M13.003,14.164c-0.042,0.021-0.083,0.055-0.125,0.1v2.026c0.05,0.054,0.097,0.092,0.144,0.115c0.099,0.05,0.242,0.054,0.31-0.033
	c0.034-0.046,0.052-0.121,0.052-0.225v-1.68c0-0.11-0.022-0.193-0.064-0.25C13.246,14.121,13.109,14.11,13.003,14.164z
	 M15.416,11.566c-1.301-0.089-5.533-0.088-6.833,0C7.177,11.663,7.011,12.513,7,14.75c0.011,2.233,0.175,3.087,1.583,3.184
	c1.3,0.089,5.532,0.089,6.833,0c1.407-0.097,1.573-0.946,1.584-3.184C16.989,12.517,16.825,11.663,15.416,11.566z M9.254,16.91
	H8.573V13.14H7.868V12.5h2.091v0.64H9.254V16.91z M11.678,16.91h-0.605v-0.359c-0.111,0.132-0.228,0.233-0.348,0.302
	c-0.326,0.188-0.773,0.183-0.773-0.477v-2.72h0.604v2.494c0,0.131,0.032,0.219,0.161,0.219c0.118,0,0.282-0.15,0.356-0.243v-2.47
	h0.605V16.91z M14.006,16.235c0,0.403-0.15,0.716-0.553,0.716c-0.222,0-0.406-0.081-0.575-0.291v0.25h-0.61V12.5h0.61v1.419
	c0.137-0.166,0.322-0.304,0.538-0.304c0.443,0,0.59,0.374,0.59,0.816V16.235z M16.241,15.359h-1.157v0.613
	c0,0.244,0.021,0.455,0.265,0.455c0.255,0,0.271-0.172,0.271-0.455v-0.226h0.622v0.244c0,0.627-0.268,1.007-0.906,1.007
	c-0.577,0-0.873-0.421-0.873-1.007v-1.46c0-0.565,0.373-0.957,0.919-0.957c0.58,0,0.86,0.369,0.86,0.957V15.359z M12,2
	c5.514,0,10,4.486,10,10c0,5.515-4.486,10-10,10C6.486,22,2,17.515,2,12C2,6.486,6.486,2,12,2z M12,0C5.373,0,0,5.373,0,12
	c0,6.627,5.373,12,12,12s12-5.373,12-12C24,5.373,18.627,0,12,0z"/>
</svg>
